Data input and manipulation • BERD
…
Read the data into R as a tibble using the readr package.

brfss <- readr::read_csv(destination)
#> Rows: 20000 Columns: 5
#> ── Column specification ────────────────────────────────────────────────────────
#> Delimiter: ","
#> chr (1): Sex
#> dbl (4): Age, Weight, Height, Year
#> 
#> ℹ Use `spec()` to retrieve the full column specification for this data.
#> ℹ Specify the column types or set `show_col_types = FALSE` to quiet this message.
brfss
#> # A tibble: 20,000 × 5
#>      Age Weight Sex    Height  Year
#>    <dbl>  <dbl> <chr>   <dbl> <dbl>
#>  1    31   49.0 Female   157.  1990
#>  2    57   81.6 Female   157.  1990
#>  3    43   80.3 Male     178.  1990
#>  4    72   70.3 Male     170.  1990
#>  5    31   49.9 Female   155.  1990
#>  6    58   54.4 Female   155.  1990
#>  7    45   69.9 Male     173.  1990
#>  8    37   68.0 Male     180.  1990
#>  9    33   65.8 Female   170.  1990
#> 10    75   70.8 Female   152.  1990
#> # ℹ 19,990 more rows
…
mutate()

Year and Sex should really be factors.
Also, add a column for log-10 transformed weight.

brfss_clean <-
    brfss |>
    mutate(
        Year = factor(Year, levels = c("1990", "2010")),
        Sex = factor(Sex, levels = c("Female", "Male")),
        Log10Weight = log10(Weight)
    )
brfss_clean
#> # A tibble: 20,000 × 6
#>      Age Weight Sex    Height Year  Log10Weight
#>    <dbl>  <dbl> <fct>   <dbl> <fct>       <dbl>
#>  1    31   49.0 Female   157. 1990         1.69
#>  2    57   81.6 Female   157. 1990         1.91
#>  3    43   80.3 Male     178. 1990         1.90
#>  4    72   70.3 Male     170. 1990         1.85
#>  5    31   49.9 Female   155. 1990         1.70
#>  6    58   54.4 Female   155. 1990         1.74
#>  7    45   69.9 Male     173. 1990         1.84
#>  8    37   68.0 Male     180. 1990         1.83
#>  9    33   65.8 Female   170. 1990         1.82
#> 10    75   70.8 Female   152. 1990         1.85
#> # ℹ 19,990 more rows

filter()

Create a subset of the data that includes only Male samples, …

brfss_male <-
    brfss_clean |>
    filter(Sex == "Male")
brfss_male
#> # A tibble: 7,961 × 6
#>      Age Weight Sex   Height Year  Log10Weight
#>    <dbl>  <dbl> <fct>  <dbl> <fct>       <dbl>
#>  1    43   80.3 Male    178. 1990         1.90
#>  2    72   70.3 Male    170. 1990         1.85
#>  3    45   69.9 Male    173. 1990         1.84
#>  4    37   68.0 Male    180. 1990         1.83
#>  5    56   88.5 Male    180. 1990         1.95
#>  6    74   81.6 Male    183. 1990         1.91
#>  7    19   93.0 Male    183. 1990         1.97
#>  8    35   97.5 Male    193. 1990         1.99
#>  9    60   78.0 Male    170. 1990         1.89
#> 10    29   77.1 Male    175. 1990         1.89
#> # ℹ 7,951 more rows

…or only Female samples from 2010.

brfss_female_2010 <-
    brfss_clean |>
    filter(Sex == "Female", Year == "2010")
brfss_female_2010
#> # A tibble: 6,321 × 6
#>      Age Weight Sex    Height Year  Log10Weight
#>    <dbl>  <dbl> <fct>   <dbl> <fct>       <dbl>
#>  1    46   45.4 Female    165 2010         1.66
#>  2    49  145.  Female    183 2010         2.16
#>  3    53   54.4 Female    155 2010         1.74
#>  4    63   77.1 Female    170 2010         1.89
#>  5    53   82.1 Female    168 2010         1.91
#>  6    64   90.7 Female    163 2010         1.96
#>  7    49   77.1 Female    173 2010         1.89
#>  8    77   72.6 Female    168 2010         1.86
#>  9    70   79.4 Female    178 2010         1.90
#> 10    83   93.0 Female    157 2010         1.97
#> # ℹ 6,311 more rows

select()

Use select() to choose particular columns, or to
re-order columns

brfss_male |>
    select(Year, Age, Weight, Log10Weight, Height)
#> # A tibble: 7,961 × 5
#>    Year    Age Weight Log10Weight Height
#>    <fct> <dbl>  <dbl>       <dbl>  <dbl>
#>  1 1990     43   80.3        1.90   178.
#>  2 1990     72   70.3        1.85   170.
#>  3 1990     45   69.9        1.84   173.
#>  4 1990     37   68.0        1.83   180.
#>  5 1990     56   88.5        1.95   180.
#>  6 1990     74   81.6        1.91   183.
#>  7 1990     19   93.0        1.97   183.
#>  8 1990     35   97.5        1.99   193.
#>  9 1990     60   78.0        1.89   170.
#> 10 1990     29   77.1        1.89   175.
#> # ℹ 7,951 more rows
…
